%YAML 1.1
%TAG !u! tag:unity3d.com,2011:
--- !u!1045 &1
EditorBuildSettings:
  m_ObjectHideFlags: 0
  serializedVersion: 2
  m_Scenes:
  - enabled: 1
    path: Assets/Scenes/Menu.unity
    guid: d200b7898dc9daa46b954b3eab8f825d
  - enabled: 1
    path: Assets/Scenes/Level01.unity
    guid: ae8ee17eae07758408eacba8fa59413b
  - enabled: 1
    path: Assets/Scenes/Level02.unity
    guid: d301e3d9a62c13d49881aedb3452437b
  - enabled: 1
    path: Assets/Scenes/Level03.unity
    guid: c8f8e1fee8bc7864dbdea60620b82605
  - enabled: 1
    path: Assets/Scenes/Credits.unity
    guid: 24604508193e911489cce6e4f31ee04b
  - enabled: 0
    path: 
    guid: 66bffb8b7f8a09745a2089efa546e1db
  - enabled: 0
    path: 
    guid: 497aafe3b7d1edc42be315da8de7aa2b
  - enabled: 0
    path: 
    guid: a5b51b8033175f045b0f2026e98706b7
